Word Sentiment – Belen
…
Comparing Relative Word Frequencies

## Warning: The `x` argument of `as_tibble.matrix()` must have unique column names if `.name_repair` is omitted as of tibble 2.0.0.
## Using compatibility `.name_repair`.

## # A tibble: 55,805 x 7
##    region     word      n  total     tf   idf tf_idf
##    <chr>      <chr> <int>  <int>  <dbl> <dbl>  <dbl>
##  1 Midwest    the    6522 171725 0.0380     0      0
##  2 South      the    6101 112988 0.0540     0      0
##  3 Midwest    and    6028 171725 0.0351     0      0
##  4 West       the    5672 103984 0.0545     0      0
##  5 North East the    5011 107590 0.0466     0      0
##  6 Midwest    of     4353 171725 0.0253     0      0
##  7 Midwest    to     4149 171725 0.0242     0      0
##  8 Midwest    in     3543 171725 0.0206     0      0
##  9 Midwest    a      3513 171725 0.0205     0      0
## 10 South      to     3491 112988 0.0309     0      0
## # … with 55,795 more rows
